%YAML 1.1
%TAG !u! tag:unity3d.com,2011:
--- !u!1 &1356695734448615469
GameObject:
  m_ObjectHideFlags: 0
  m_CorrespondingSourceObject: {fileID: 0}
  m_PrefabInstance: {fileID: 0}
  m_PrefabAsset: {fileID: 0}
  serializedVersion: 6
  m_Component:
  - component: {fileID: 512985200145941201}
  - component: {fileID: 6375228624265496082}
  m_Layer: 31
  m_Name: GroundPallet
  m_TagString: Untagged
  m_Icon: {fileID: 0}
  m_NavMeshLayer: 0
  m_StaticEditorFlags: 0
  m_IsActive: 1
--- !u!4 &512985200145941201
Transform:
  m_ObjectHideFlags: 0
  m_CorrespondingSourceObject: {fileID: 0}
  m_PrefabInstance: {fileID: 0}
  m_PrefabAsset: {fileID: 0}
  m_GameObject: {fileID: 1356695734448615469}
  m_LocalRotation: {x: 0, y: 0, z: 0, w: 1}
  m_LocalPosition: {x: 0, y: 0, z: 0}
  m_LocalScale: {x: 1, y: 1, z: 1}
  m_Children:
  - {fileID: 7931869190823177479}
  m_Father: {fileID: 0}
  m_RootOrder: 0
  m_LocalEulerAnglesHint: {x: 0, y: 0, z: 0}
--- !u!156049354 &6375228624265496082
Grid:
  m_ObjectHideFlags: 0
  m_CorrespondingSourceObject: {fileID: 0}
  m_PrefabInstance: {fileID: 0}
  m_PrefabAsset: {fileID: 0}
  m_GameObject: {fileID: 1356695734448615469}
  m_Enabled: 1
  m_CellSize: {x: 2, y: 2, z: 0}
  m_CellGap: {x: 0, y: 0, z: 0}
  m_CellLayout: 0
  m_CellSwizzle: 0
--- !u!1 &8340489810583828006
GameObject:
  m_ObjectHideFlags: 0
  m_CorrespondingSourceObject: {fileID: 0}
  m_PrefabInstance: {fileID: 0}
  m_PrefabAsset: {fileID: 0}
  serializedVersion: 6
  m_Component:
  - component: {fileID: 7931869190823177479}
  - component: {fileID: 1886204769556765787}
  - component: {fileID: 8952301849888502988}
  m_Layer: 31
  m_Name: Layer1
  m_TagString: Untagged
  m_Icon: {fileID: 0}
  m_NavMeshLayer: 0
  m_StaticEditorFlags: 0
  m_IsActive: 1
--- !u!4 &7931869190823177479
Transform:
  m_ObjectHideFlags: 0
  m_CorrespondingSourceObject: {fileID: 0}
  m_PrefabInstance: {fileID: 0}
  m_PrefabAsset: {fileID: 0}
  m_GameObject: {fileID: 8340489810583828006}
  m_LocalRotation: {x: -0, y: -0, z: -0, w: 1}
  m_LocalPosition: {x: 0, y: 0, z: 0}
  m_LocalScale: {x: 1, y: 1, z: 1}
  m_Children: []
  m_Father: {fileID: 512985200145941201}
  m_RootOrder: 0
  m_LocalEulerAnglesHint: {x: 0, y: 0, z: 0}
--- !u!1839735485 &1886204769556765787
Tilemap:
  m_ObjectHideFlags: 0
  m_CorrespondingSourceObject: {fileID: 0}
  m_PrefabInstance: {fileID: 0}
  m_PrefabAsset: {fileID: 0}
  m_GameObject: {fileID: 8340489810583828006}
  m_Enabled: 1
  m_Tiles:
  - first: {x: -2, y: -9, z: 0}
    second:
      serializedVersion: 2
      m_TileIndex: 114
      m_TileSpriteIndex: 114
      m_TileMatrixIndex: 0
      m_TileColorIndex: 0
      m_TileObjectToInstantiateIndex: 65535
      m_AllTileFlags: 1073741825
  - first: {x: -1, y: -9, z: 0}
    second:
      serializedVersion: 2
      m_TileIndex: 115
      m_TileSpriteIndex: 115
      m_TileMatrixIndex: 0
      m_TileColorIndex: 0
      m_TileObjectToInstantiateIndex: 65535
      m_AllTileFlags: 1073741825
  - first: {x: 0, y: -9, z: 0}
    second:
      serializedVersion: 2
      m_TileIndex: 116
      m_TileSpriteIndex: 116
      m_TileMatrixIndex: 0
      m_TileColorIndex: 0
      m_TileObjectToInstantiateIndex: 65535
      m_AllTileFlags: 1073741825
  - first: {x: 1, y: -9, z: 0}
    second:
      serializedVersion: 2
      m_TileIndex: 117
      m_TileSpriteIndex: 117
      m_TileMatrixIndex: 0
      m_TileColorIndex: 0
      m_TileObjectToInstantiateIndex: 65535
      m_AllTileFlags: 1073741825
  - first: {x: -2, y: -8, z: 0}
    second:
      serializedVersion: 2
      m_TileIndex: 102
      m_TileSpriteIndex: 102
      m_TileMatrixIndex: 0
      m_TileColorIndex: 0
      m_TileObjectToInstantiateIndex: 65535
      m_AllTileFlags: 1073741825
  - first: {x: -1, y: -8, z: 0}
    second:
      serializedVersion: 2
      m_TileIndex: 103
      m_TileSpriteIndex: 103
      m_TileMatrixIndex: 0
      m_TileColorIndex: 0
      m_TileObjectToInstantiateIndex: 65535
      m_AllTileFlags: 1073741825
  - first: {x: 0, y: -8, z: 0}
    second:
      serializedVersion: 2
      m_TileIndex: 104
      m_TileSpriteIndex: 104
      m_TileMatrixIndex: 0
      m_TileColorIndex: 0
      m_TileObjectToInstantiateIndex: 65535
      m_AllTileFlags: 1073741825
  - first: {x: 1, y: -8, z: 0}
    second:
      serializedVersion: 2
      m_TileIndex: 105
      m_TileSpriteIndex: 105
      m_TileMatrixIndex: 0
      m_TileColorIndex: 0
      m_TileObjectToInstantiateIndex: 65535
      m_AllTileFlags: 1073741825
  - first: {x: -1, y: -7, z: 0}
    second:
      serializedVersion: 2
      m_TileIndex: 92
      m_TileSpriteIndex: 92
      m_TileMatrixIndex: 0
      m_TileColorIndex: 0
      m_TileObjectToInstantiateIndex: 65535
      m_AllTileFlags: 1073741825
  - first: {x: 0, y: -7, z: 0}
    second:
      serializedVersion: 2
      m_TileIndex: 93
      m_TileSpriteIndex: 93
      m_TileMatrixIndex: 0
      m_TileColorIndex: 0
      m_TileObjectToInstantiateIndex: 65535
      m_AllTileFlags: 1073741825
  - first: {x: 1, y: -7, z: 0}
    second:
      serializedVersion: 2
      m_TileIndex: 110
      m_TileSpriteIndex: 110
      m_TileMatrixIndex: 0
      m_TileColorIndex: 0
      m_TileObjectToInstantiateIndex: 65535
      m_AllTileFlags: 1073741825
  - first: {x: 2, y: -7, z: 0}
    second:
      serializedVersion: 2
      m_TileIndex: 111
      m_TileSpriteIndex: 111
      m_TileMatrixIndex: 0
      m_TileColorIndex: 0
      m_TileObjectToInstantiateIndex: 65535
      m_AllTileFlags: 1073741825
  - first: {x: 3, y: -7, z: 0}
    second:
      serializedVersion: 2
      m_TileIndex: 112
      m_TileSpriteIndex: 112
      m_TileMatrixIndex: 0
      m_TileColorIndex: 0
      m_TileObjectToInstantiateIndex: 65535
      m_AllTileFlags: 1073741825
  - first: {x: 4, y: -7, z: 0}
    second:
      serializedVersion: 2
      m_TileIndex: 113
      m_TileSpriteIndex: 113
      m_TileMatrixIndex: 0
      m_TileColorIndex: 0
      m_TileObjectToInstantiateIndex: 65535
      m_AllTileFlags: 1073741825
  - first: {x: -1, y: -6, z: 0}
    second:
      serializedVersion: 2
      m_TileIndex: 82
      m_TileSpriteIndex: 82
      m_TileMatrixIndex: 0
      m_TileColorIndex: 0
      m_TileObjectToInstantiateIndex: 65535
      m_AllTileFlags: 1073741825
  - first: {x: 0, y: -6, z: 0}
    second:
      serializedVersion: 2
      m_TileIndex: 83
      m_TileSpriteIndex: 83
      m_TileMatrixIndex: 0
      m_TileColorIndex: 0
      m_TileObjectToInstantiateIndex: 65535
      m_AllTileFlags: 1073741825
  - first: {x: 1, y: -6, z: 0}
    second:
      serializedVersion: 2
      m_TileIndex: 98
      m_TileSpriteIndex: 98
      m_TileMatrixIndex: 0
      m_TileColorIndex: 0
      m_TileObjectToInstantiateIndex: 65535
      m_AllTileFlags: 1073741825
  - first: {x: 2, y: -6, z: 0}
    second:
      serializedVersion: 2
      m_TileIndex: 99
      m_TileSpriteIndex: 99
      m_TileMatrixIndex: 0
      m_TileColorIndex: 0
      m_TileObjectToInstantiateIndex: 65535
      m_AllTileFlags: 1073741825
  - first: {x: 3, y: -6, z: 0}
    second:
      serializedVersion: 2
      m_TileIndex: 100
      m_TileSpriteIndex: 100
      m_TileMatrixIndex: 0
      m_TileColorIndex: 0
      m_TileObjectToInstantiateIndex: 65535
      m_AllTileFlags: 1073741825
  - first: {x: 4, y: -6, z: 0}
    second:
      serializedVersion: 2
      m_TileIndex: 101
      m_TileSpriteIndex: 101
      m_TileMatrixIndex: 0
      m_TileColorIndex: 0
      m_TileObjectToInstantiateIndex: 65535
      m_AllTileFlags: 1073741825
  - first: {x: 6, y: -6, z: 0}
    second:
      serializedVersion: 2
      m_TileIndex: 106
      m_TileSpriteIndex: 106
      m_TileMatrixIndex: 0
      m_TileColorIndex: 0
      m_TileObjectToInstantiateIndex: 65535
      m_AllTileFlags: 1073741825
  - first: {x: 7, y: -6, z: 0}
    second:
      serializedVersion: 2
      m_TileIndex: 107
      m_TileSpriteIndex: 107
      m_TileMatrixIndex: 0
      m_TileColorIndex: 0
      m_TileObjectToInstantiateIndex: 65535
      m_AllTileFlags: 1073741825
  - first: {x: 8, y: -6, z: 0}
    second:
      serializedVersion: 2
      m_TileIndex: 108
      m_TileSpriteIndex: 108
      m_TileMatrixIndex: 0
      m_TileColorIndex: 0
      m_TileObjectToInstantiateIndex: 65535
      m_AllTileFlags: 1073741825
  - first: {x: 9, y: -6, z: 0}
    second:
      serializedVersion: 2
      m_TileIndex: 109
      m_TileSpriteIndex: 109
      m_TileMatrixIndex: 0
      m_TileColorIndex: 0
      m_TileObjectToInstantiateIndex: 65535
      m_AllTileFlags: 1073741825
  - first: {x: -2, y: -5, z: 0}
    second:
      serializedVersion: 2
      m_TileIndex: 87
      m_TileSpriteIndex: 87
      m_TileMatrixIndex: 0
      m_TileColorIndex: 0
      m_TileObjectToInstantiateIndex: 65535
      m_AllTileFlags: 1073741825
  - first: {x: -1, y: -5, z: 0}
    second:
      serializedVersion: 2
      m_TileIndex: 88
      m_TileSpriteIndex: 88
      m_TileMatrixIndex: 0
      m_TileColorIndex: 0
      m_TileObjectToInstantiateIndex: 65535
      m_AllTileFlags: 1073741825
  - first: {x: 0, y: -5, z: 0}
    second:
      serializedVersion: 2
      m_TileIndex: 89
      m_TileSpriteIndex: 89
      m_TileMatrixIndex: 0
      m_TileColorIndex: 0
      m_TileObjectToInstantiateIndex: 65535
      m_AllTileFlags: 1073741825
  - first: {x: 4, y: -5, z: 0}
    second:
      serializedVersion: 2
      m_TileIndex: 90
      m_TileSpriteIndex: 90
      m_TileMatrixIndex: 0
      m_TileColorIndex: 0
      m_TileObjectToInstantiateIndex: 65535
      m_AllTileFlags: 1073741825
  - first: {x: 5, y: -5, z: 0}
    second:
      serializedVersion: 2
      m_TileIndex: 91
      m_TileSpriteIndex: 91
      m_TileMatrixIndex: 0
      m_TileColorIndex: 0
      m_TileObjectToInstantiateIndex: 65535
      m_AllTileFlags: 1073741825
  - first: {x: 6, y: -5, z: 0}
    second:
      serializedVersion: 2
      m_TileIndex: 94
      m_TileSpriteIndex: 94
      m_TileMatrixIndex: 0
      m_TileColorIndex: 0
      m_TileObjectToInstantiateIndex: 65535
      m_AllTileFlags: 1073741825
  - first: {x: 7, y: -5, z: 0}
    second:
      serializedVersion: 2
      m_TileIndex: 95
      m_TileSpriteIndex: 95
      m_TileMatrixIndex: 0
      m_TileColorIndex: 0
      m_TileObjectToInstantiateIndex: 65535
      m_AllTileFlags: 1073741825
  - first: {x: 8, y: -5, z: 0}
    second:
      serializedVersion: 2
      m_TileIndex: 96
      m_TileSpriteIndex: 96
      m_TileMatrixIndex: 0
      m_TileColorIndex: 0
      m_TileObjectToInstantiateIndex: 65535
      m_AllTileFlags: 1073741825
  - first: {x: 9, y: -5, z: 0}
    second:
      serializedVersion: 2
      m_TileIndex: 97
      m_TileSpriteIndex: 97
      m_TileMatrixIndex: 0
      m_TileColorIndex: 0
      m_TileObjectToInstantiateIndex: 65535
      m_AllTileFlags: 1073741825
  - first: {x: -2, y: -4, z: 0}
    second:
      serializedVersion: 2
      m_TileIndex: 77
      m_TileSpriteIndex: 77
      m_TileMatrixIndex: 0
      m_TileColorIndex: 0
      m_TileObjectToInstantiateIndex: 65535
      m_AllTileFlags: 1073741825
  - first: {x: -1, y: -4, z: 0}
    second:
      serializedVersion: 2
      m_TileIndex: 78
      m_TileSpriteIndex: 78
      m_TileMatrixIndex: 0
      m_TileColorIndex: 0
      m_TileObjectToInstantiateIndex: 65535
      m_AllTileFlags: 1073741825
  - first: {x: 0, y: -4, z: 0}
    second:
      serializedVersion: 2
      m_TileIndex: 79
      m_TileSpriteIndex: 79
      m_TileMatrixIndex: 0
      m_TileColorIndex: 0
      m_TileObjectToInstantiateIndex: 65535
      m_AllTileFlags: 1073741825
  - first: {x: 2, y: -4, z: 0}
    second:
      serializedVersion: 2
      m_TileIndex: 84
      m_TileSpriteIndex: 84
      m_TileMatrixIndex: 0
      m_TileColorIndex: 0
      m_TileObjectToInstantiateIndex: 65535
      m_AllTileFlags: 1073741825
  - first: {x: 3, y: -4, z: 0}
    second:
      serializedVersion: 2
      m_TileIndex: 85
      m_TileSpriteIndex: 85
      m_TileMatrixIndex: 0
      m_TileColorIndex: 0
      m_TileObjectToInstantiateIndex: 65535
      m_AllTileFlags: 1073741825
  - first: {x: 4, y: -4, z: 0}
    second:
      serializedVersion: 2
      m_TileIndex: 80
      m_TileSpriteIndex: 80
      m_TileMatrixIndex: 0
      m_TileColorIndex: 0
      m_TileObjectToInstantiateIndex: 65535
      m_AllTileFlags: 1073741825
  - first: {x: 5, y: -4, z: 0}
    second:
      serializedVersion: 2
      m_TileIndex: 81
      m_TileSpriteIndex: 81
      m_TileMatrixIndex: 0
      m_TileColorIndex: 0
      m_TileObjectToInstantiateIndex: 65535
      m_AllTileFlags: 1073741825
  - first: {x: 7, y: -4, z: 0}
    second:
      serializedVersion: 2
      m_TileIndex: 86
      m_TileSpriteIndex: 86
      m_TileMatrixIndex: 0
      m_TileColorIndex: 0
      m_TileObjectToInstantiateIndex: 65535
      m_AllTileFlags: 1073741825
  - first: {x: -2, y: -3, z: 0}
    second:
      serializedVersion: 2
      m_TileIndex: 68
      m_TileSpriteIndex: 68
      m_TileMatrixIndex: 0
      m_TileColorIndex: 0
      m_TileObjectToInstantiateIndex: 65535
      m_AllTileFlags: 1073741825
  - first: {x: -1, y: -3, z: 0}
    second:
      serializedVersion: 2
      m_TileIndex: 69
      m_TileSpriteIndex: 69
      m_TileMatrixIndex: 0
      m_TileColorIndex: 0
      m_TileObjectToInstantiateIndex: 65535
      m_AllTileFlags: 1073741825
  - first: {x: 0, y: -3, z: 0}
    second:
      serializedVersion: 2
      m_TileIndex: 70
      m_TileSpriteIndex: 70
      m_TileMatrixIndex: 0
      m_TileColorIndex: 0
      m_TileObjectToInstantiateIndex: 65535
      m_AllTileFlags: 1073741825
  - first: {x: 1, y: -3, z: 0}
    second:
      serializedVersion: 2
      m_TileIndex: 71
      m_TileSpriteIndex: 71
      m_TileMatrixIndex: 0
      m_TileColorIndex: 0
      m_TileObjectToInstantiateIndex: 65535
      m_AllTileFlags: 1073741825
  - first: {x: 2, y: -3, z: 0}
    second:
      serializedVersion: 2
      m_TileIndex: 72
      m_TileSpriteIndex: 72
      m_TileMatrixIndex: 0
      m_TileColorIndex: 0
      m_TileObjectToInstantiateIndex: 65535
      m_AllTileFlags: 1073741825
  - first: {x: 3, y: -3, z: 0}
    second:
      serializedVersion: 2
      m_TileIndex: 73
      m_TileSpriteIndex: 73
      m_TileMatrixIndex: 0
      m_TileColorIndex: 0
      m_TileObjectToInstantiateIndex: 65535
      m_AllTileFlags: 1073741825
  - first: {x: 7, y: -3, z: 0}
    second:
      serializedVersion: 2
      m_TileIndex: 74
      m_TileSpriteIndex: 74
      m_TileMatrixIndex: 0
      m_TileColorIndex: 0
      m_TileObjectToInstantiateIndex: 65535
      m_AllTileFlags: 1073741825
  - first: {x: 8, y: -3, z: 0}
    second:
      serializedVersion: 2
      m_TileIndex: 75
      m_TileSpriteIndex: 75
      m_TileMatrixIndex: 0
      m_TileColorIndex: 0
      m_TileObjectToInstantiateIndex: 65535
      m_AllTileFlags: 1073741825
  - first: {x: 9, y: -3, z: 0}
    second:
      serializedVersion: 2
      m_TileIndex: 76
      m_TileSpriteIndex: 76
      m_TileMatrixIndex: 0
      m_TileColorIndex: 0
      m_TileObjectToInstantiateIndex: 65535
      m_AllTileFlags: 1073741825
  - first: {x: -2, y: -2, z: 0}
    second:
      serializedVersion: 2
      m_TileIndex: 56
      m_TileSpriteIndex: 56
      m_TileMatrixIndex: 0
      m_TileColorIndex: 0
      m_TileObjectToInstantiateIndex: 65535
      m_AllTileFlags: 1073741825
  - first: {x: -1, y: -2, z: 0}
    second:
      serializedVersion: 2
      m_TileIndex: 57
      m_TileSpriteIndex: 57
      m_TileMatrixIndex: 0
      m_TileColorIndex: 0
      m_TileObjectToInstantiateIndex: 65535
      m_AllTileFlags: 1073741825
  - first: {x: 0, y: -2, z: 0}
    second:
      serializedVersion: 2
      m_TileIndex: 58
      m_TileSpriteIndex: 58
      m_TileMatrixIndex: 0
      m_TileColorIndex: 0
      m_TileObjectToInstantiateIndex: 65535
      m_AllTileFlags: 1073741825
  - first: {x: 1, y: -2, z: 0}
    second:
      serializedVersion: 2
      m_TileIndex: 59
      m_TileSpriteIndex: 59
      m_TileMatrixIndex: 0
      m_TileColorIndex: 0
      m_TileObjectToInstantiateIndex: 65535
      m_AllTileFlags: 1073741825
  - first: {x: 2, y: -2, z: 0}
    second:
      serializedVersion: 2
      m_TileIndex: 60
      m_TileSpriteIndex: 60
      m_TileMatrixIndex: 0
      m_TileColorIndex: 0
      m_TileObjectToInstantiateIndex: 65535
      m_AllTileFlags: 1073741825
  - first: {x: 3, y: -2, z: 0}
    second:
      serializedVersion: 2
      m_TileIndex: 61
      m_TileSpriteIndex: 61
      m_TileMatrixIndex: 0
      m_TileColorIndex: 0
      m_TileObjectToInstantiateIndex: 65535
      m_AllTileFlags: 1073741825
  - first: {x: 4, y: -2, z: 0}
    second:
      serializedVersion: 2
      m_TileIndex: 62
      m_TileSpriteIndex: 62
      m_TileMatrixIndex: 0
      m_TileColorIndex: 0
      m_TileObjectToInstantiateIndex: 65535
      m_AllTileFlags: 1073741825
  - first: {x: 5, y: -2, z: 0}
    second:
      serializedVersion: 2
      m_TileIndex: 63
      m_TileSpriteIndex: 63
      m_TileMatrixIndex: 0
      m_TileColorIndex: 0
      m_TileObjectToInstantiateIndex: 65535
      m_AllTileFlags: 1073741825
  - first: {x: 6, y: -2, z: 0}
    second:
      serializedVersion: 2
      m_TileIndex: 64
      m_TileSpriteIndex: 64
      m_TileMatrixIndex: 0
      m_TileColorIndex: 0
      m_TileObjectToInstantiateIndex: 65535
      m_AllTileFlags: 1073741825
  - first: {x: 7, y: -2, z: 0}
    second:
      serializedVersion: 2
      m_TileIndex: 65
      m_TileSpriteIndex: 65
      m_TileMatrixIndex: 0
      m_TileColorIndex: 0
      m_TileObjectToInstantiateIndex: 65535
      m_AllTileFlags: 1073741825
  - first: {x: 8, y: -2, z: 0}
    second:
      serializedVersion: 2
      m_TileIndex: 66
      m_TileSpriteIndex: 66
      m_TileMatrixIndex: 0
      m_TileColorIndex: 0
      m_TileObjectToInstantiateIndex: 65535
      m_AllTileFlags: 1073741825
  - first: {x: 9, y: -2, z: 0}
    second:
      serializedVersion: 2
      m_TileIndex: 67
      m_TileSpriteIndex: 67
      m_TileMatrixIndex: 0
      m_TileColorIndex: 0
      m_TileObjectToInstantiateIndex: 65535
      m_AllTileFlags: 1073741825
  - first: {x: -2, y: -1, z: 0}
    second:
      serializedVersion: 2
      m_TileIndex: 46
      m_TileSpriteIndex: 46
      m_TileMatrixIndex: 0
      m_TileColorIndex: 0
      m_TileObjectToInstantiateIndex: 65535
      m_AllTileFlags: 1073741825
  - first: {x: 0, y: -1, z: 0}
    second:
      serializedVersion: 2
      m_TileIndex: 47
      m_TileSpriteIndex: 47
      m_TileMatrixIndex: 0
      m_TileColorIndex: 0
      m_TileObjectToInstantiateIndex: 65535
      m_AllTileFlags: 1073741825
  - first: {x: 1, y: -1, z: 0}
    second:
      serializedVersion: 2
      m_TileIndex: 48
      m_TileSpriteIndex: 48
      m_TileMatrixIndex: 0
      m_TileColorIndex: 0
      m_TileObjectToInstantiateIndex: 65535
      m_AllTileFlags: 1073741825
  - first: {x: 2, y: -1, z: 0}
    second:
      serializedVersion: 2
      m_TileIndex: 49
      m_TileSpriteIndex: 49
      m_TileMatrixIndex: 0
      m_TileColorIndex: 0
      m_TileObjectToInstantiateIndex: 65535
      m_AllTileFlags: 1073741825
  - first: {x: 3, y: -1, z: 0}
    second:
      serializedVersion: 2
      m_TileIndex: 50
      m_TileSpriteIndex: 50
      m_TileMatrixIndex: 0
      m_TileColorIndex: 0
      m_TileObjectToInstantiateIndex: 65535
      m_AllTileFlags: 1073741825
  - first: {x: 4, y: -1, z: 0}
    second:
      serializedVersion: 2
      m_TileIndex: 51
      m_TileSpriteIndex: 51
      m_TileMatrixIndex: 0
      m_TileColorIndex: 0
      m_TileObjectToInstantiateIndex: 65535
      m_AllTileFlags: 1073741825
  - first: {x: 6, y: -1, z: 0}
    second:
      serializedVersion: 2
      m_TileIndex: 52
      m_TileSpriteIndex: 52
      m_TileMatrixIndex: 0
      m_TileColorIndex: 0
      m_TileObjectToInstantiateIndex: 65535
      m_AllTileFlags: 1073741825
  - first: {x: 7, y: -1, z: 0}
    second:
      serializedVersion: 2
      m_TileIndex: 53
      m_TileSpriteIndex: 53
      m_TileMatrixIndex: 0
      m_TileColorIndex: 0
      m_TileObjectToInstantiateIndex: 65535
      m_AllTileFlags: 1073741825
  - first: {x: 8, y: -1, z: 0}
    second:
      serializedVersion: 2
      m_TileIndex: 54
      m_TileSpriteIndex: 54
      m_TileMatrixIndex: 0
      m_TileColorIndex: 0
      m_TileObjectToInstantiateIndex: 65535
      m_AllTileFlags: 1073741825
  - first: {x: 9, y: -1, z: 0}
    second:
      serializedVersion: 2
      m_TileIndex: 55
      m_TileSpriteIndex: 55
      m_TileMatrixIndex: 0
      m_TileColorIndex: 0
      m_TileObjectToInstantiateIndex: 65535
      m_AllTileFlags: 1073741825
  - first: {x: -2, y: 0, z: 0}
    second:
      serializedVersion: 2
      m_TileIndex: 34
      m_TileSpriteIndex: 34
      m_TileMatrixIndex: 0
      m_TileColorIndex: 0
      m_TileObjectToInstantiateIndex: 65535
      m_AllTileFlags: 1073741825
  - first: {x: -1, y: 0, z: 0}
    second:
      serializedVersion: 2
      m_TileIndex: 35
      m_TileSpriteIndex: 35
      m_TileMatrixIndex: 0
      m_TileColorIndex: 0
      m_TileObjectToInstantiateIndex: 65535
      m_AllTileFlags: 1073741825
  - first: {x: 0, y: 0, z: 0}
    second:
      serializedVersion: 2
      m_TileIndex: 36
      m_TileSpriteIndex: 36
      m_TileMatrixIndex: 0
      m_TileColorIndex: 0
      m_TileObjectToInstantiateIndex: 65535
      m_AllTileFlags: 1073741825
  - first: {x: 1, y: 0, z: 0}
    second:
      serializedVersion: 2
      m_TileIndex: 37
      m_TileSpriteIndex: 37
      m_TileMatrixIndex: 0
      m_TileColorIndex: 0
      m_TileObjectToInstantiateIndex: 65535
      m_AllTileFlags: 1073741825
  - first: {x: 2, y: 0, z: 0}
    second:
      serializedVersion: 2
      m_TileIndex: 38
      m_TileSpriteIndex: 38
      m_TileMatrixIndex: 0
      m_TileColorIndex: 0
      m_TileObjectToInstantiateIndex: 65535
      m_AllTileFlags: 1073741825
  - first: {x: 3, y: 0, z: 0}
    second:
      serializedVersion: 2
      m_TileIndex: 39
      m_TileSpriteIndex: 39
      m_TileMatrixIndex: 0
      m_TileColorIndex: 0
      m_TileObjectToInstantiateIndex: 65535
      m_AllTileFlags: 1073741825
  - first: {x: 4, y: 0, z: 0}
    second:
      serializedVersion: 2
      m_TileIndex: 40
      m_TileSpriteIndex: 40
      m_TileMatrixIndex: 0
      m_TileColorIndex: 0
      m_TileObjectToInstantiateIndex: 65535
      m_AllTileFlags: 1073741825
  - first: {x: 5, y: 0, z: 0}
    second:
      serializedVersion: 2
      m_TileIndex: 41
      m_TileSpriteIndex: 41
      m_TileMatrixIndex: 0
      m_TileColorIndex: 0
      m_TileObjectToInstantiateIndex: 65535
      m_AllTileFlags: 1073741825
  - first: {x: 6, y: 0, z: 0}
    second:
      serializedVersion: 2
      m_TileIndex: 42
      m_TileSpriteIndex: 42
      m_TileMatrixIndex: 0
      m_TileColorIndex: 0
      m_TileObjectToInstantiateIndex: 65535
      m_AllTileFlags: 1073741825
  - first: {x: 7, y: 0, z: 0}
    second:
      serializedVersion: 2
      m_TileIndex: 43
      m_TileSpriteIndex: 43
      m_TileMatrixIndex: 0
      m_TileColorIndex: 0
      m_TileObjectToInstantiateIndex: 65535
      m_AllTileFlags: 1073741825
  - first: {x: 8, y: 0, z: 0}
    second:
      serializedVersion: 2
      m_TileIndex: 44
      m_TileSpriteIndex: 44
      m_TileMatrixIndex: 0
      m_TileColorIndex: 0
      m_TileObjectToInstantiateIndex: 65535
      m_AllTileFlags: 1073741825
  - first: {x: 9, y: 0, z: 0}
    second:
      serializedVersion: 2
      m_TileIndex: 45
      m_TileSpriteIndex: 45
      m_TileMatrixIndex: 0
      m_TileColorIndex: 0
      m_TileObjectToInstantiateIndex: 65535
      m_AllTileFlags: 1073741825
  - first: {x: -2, y: 1, z: 0}
    second:
      serializedVersion: 2
      m_TileIndex: 22
      m_TileSpriteIndex: 22
      m_TileMatrixIndex: 0
      m_TileColorIndex: 0
      m_TileObjectToInstantiateIndex: 65535
      m_AllTileFlags: 1073741825
  - first: {x: -1, y: 1, z: 0}
    second:
      serializedVersion: 2
      m_TileIndex: 23
      m_TileSpriteIndex: 23
      m_TileMatrixIndex: 0
      m_TileColorIndex: 0
      m_TileObjectToInstantiateIndex: 65535
      m_AllTileFlags: 1073741825
  - first: {x: 0, y: 1, z: 0}
    second:
      serializedVersion: 2
      m_TileIndex: 24
      m_TileSpriteIndex: 24
      m_TileMatrixIndex: 0
      m_TileColorIndex: 0
      m_TileObjectToInstantiateIndex: 65535
      m_AllTileFlags: 1073741825
  - first: {x: 1, y: 1, z: 0}
    second:
      serializedVersion: 2
      m_TileIndex: 25
      m_TileSpriteIndex: 25
      m_TileMatrixIndex: 0
      m_TileColorIndex: 0
      m_TileObjectToInstantiateIndex: 65535
      m_AllTileFlags: 1073741825
  - first: {x: 2, y: 1, z: 0}
    second:
      serializedVersion: 2
      m_TileIndex: 26
      m_TileSpriteIndex: 26
      m_TileMatrixIndex: 0
      m_TileColorIndex: 0
      m_TileObjectToInstantiateIndex: 65535
      m_AllTileFlags: 1073741825
  - first: {x: 3, y: 1, z: 0}
    second:
      serializedVersion: 2
      m_TileIndex: 27
      m_TileSpriteIndex: 27
      m_TileMatrixIndex: 0
      m_TileColorIndex: 0
      m_TileObjectToInstantiateIndex: 65535
      m_AllTileFlags: 1073741825
  - first: {x: 4, y: 1, z: 0}
    second:
      serializedVersion: 2
      m_TileIndex: 28
      m_TileSpriteIndex: 28
      m_TileMatrixIndex: 0
      m_TileColorIndex: 0
      m_TileObjectToInstantiateIndex: 65535
      m_AllTileFlags: 1073741825
  - first: {x: 5, y: 1, z: 0}
    second:
      serializedVersion: 2
      m_TileIndex: 29
      m_TileSpriteIndex: 29
      m_TileMatrixIndex: 0
      m_TileColorIndex: 0
      m_TileObjectToInstantiateIndex: 65535
      m_AllTileFlags: 1073741825
  - first: {x: 6, y: 1, z: 0}
    second:
      serializedVersion: 2
      m_TileIndex: 30
      m_TileSpriteIndex: 30
      m_TileMatrixIndex: 0
      m_TileColorIndex: 0
      m_TileObjectToInstantiateIndex: 65535
      m_AllTileFlags: 1073741825
  - first: {x: 7, y: 1, z: 0}
    second:
      serializedVersion: 2
      m_TileIndex: 31
      m_TileSpriteIndex: 31
      m_TileMatrixIndex: 0
      m_TileColorIndex: 0
      m_TileObjectToInstantiateIndex: 65535
      m_AllTileFlags: 1073741825
  - first: {x: 8, y: 1, z: 0}
    second:
      serializedVersion: 2
      m_TileIndex: 32
      m_TileSpriteIndex: 32
      m_TileMatrixIndex: 0
      m_TileColorIndex: 0
      m_TileObjectToInstantiateIndex: 65535
      m_AllTileFlags: 1073741825
  - first: {x: 9, y: 1, z: 0}
    second:
      serializedVersion: 2
      m_TileIndex: 33
      m_TileSpriteIndex: 33
      m_TileMatrixIndex: 0
      m_TileColorIndex: 0
      m_TileObjectToInstantiateIndex: 65535
      m_AllTileFlags: 1073741825
  - first: {x: -2, y: 2, z: 0}
    second:
      serializedVersion: 2
      m_TileIndex: 2
      m_TileSpriteIndex: 2
      m_TileMatrixIndex: 0
      m_TileColorIndex: 0
      m_TileObjectToInstantiateIndex: 65535
      m_AllTileFlags: 1073741825
  - first: {x: -1, y: 2, z: 0}
    second:
      serializedVersion: 2
      m_TileIndex: 1
      m_TileSpriteIndex: 1
      m_TileMatrixIndex: 0
      m_TileColorIndex: 0
      m_TileObjectToInstantiateIndex: 65535
      m_AllTileFlags: 1073741825
  - first: {x: 0, y: 2, z: 0}
    second:
      serializedVersion: 2
      m_TileIndex: 0
      m_TileSpriteIndex: 0
      m_TileMatrixIndex: 0
      m_TileColorIndex: 0
      m_TileObjectToInstantiateIndex: 65535
      m_AllTileFlags: 1073741825
  - first: {x: 1, y: 2, z: 0}
    second:
      serializedVersion: 2
      m_TileIndex: 15
      m_TileSpriteIndex: 15
      m_TileMatrixIndex: 0
      m_TileColorIndex: 0
      m_TileObjectToInstantiateIndex: 65535
      m_AllTileFlags: 1073741825
  - first: {x: 3, y: 2, z: 0}
    second:
      serializedVersion: 2
      m_TileIndex: 16
      m_TileSpriteIndex: 16
      m_TileMatrixIndex: 0
      m_TileColorIndex: 0
      m_TileObjectToInstantiateIndex: 65535
      m_AllTileFlags: 1073741825
  - first: {x: 4, y: 2, z: 0}
    second:
      serializedVersion: 2
      m_TileIndex: 17
      m_TileSpriteIndex: 17
      m_TileMatrixIndex: 0
      m_TileColorIndex: 0
      m_TileObjectToInstantiateIndex: 65535
      m_AllTileFlags: 1073741825
  - first: {x: 5, y: 2, z: 0}
    second:
      serializedVersion: 2
      m_TileIndex: 18
      m_TileSpriteIndex: 18
      m_TileMatrixIndex: 0
      m_TileColorIndex: 0
      m_TileObjectToInstantiateIndex: 65535
      m_AllTileFlags: 1073741825
  - first: {x: 6, y: 2, z: 0}
    second:
      serializedVersion: 2
      m_TileIndex: 19
      m_TileSpriteIndex: 19
      m_TileMatrixIndex: 0
      m_TileColorIndex: 0
      m_TileObjectToInstantiateIndex: 65535
      m_AllTileFlags: 1073741825
  - first: {x: 7, y: 2, z: 0}
    second:
      serializedVersion: 2
      m_TileIndex: 20
      m_TileSpriteIndex: 20
      m_TileMatrixIndex: 0
      m_TileColorIndex: 0
      m_TileObjectToInstantiateIndex: 65535
      m_AllTileFlags: 1073741825
  - first: {x: 9, y: 2, z: 0}
    second:
      serializedVersion: 2
      m_TileIndex: 21
      m_TileSpriteIndex: 21
      m_TileMatrixIndex: 0
      m_TileColorIndex: 0
      m_TileObjectToInstantiateIndex: 65535
      m_AllTileFlags: 1073741825
  - first: {x: -2, y: 3, z: 0}
    second:
      serializedVersion: 2
      m_TileIndex: 14
      m_TileSpriteIndex: 14
      m_TileMatrixIndex: 0
      m_TileColorIndex: 0
      m_TileObjectToInstantiateIndex: 65535
      m_AllTileFlags: 1073741825
  - first: {x: -1, y: 3, z: 0}
    second:
      serializedVersion: 2
      m_TileIndex: 13
      m_TileSpriteIndex: 13
      m_TileMatrixIndex: 0
      m_TileColorIndex: 0
      m_TileObjectToInstantiateIndex: 65535
      m_AllTileFlags: 1073741825
  - first: {x: 0, y: 3, z: 0}
    second:
      serializedVersion: 2
      m_TileIndex: 12
      m_TileSpriteIndex: 12
      m_TileMatrixIndex: 0
      m_TileColorIndex: 0
      m_TileObjectToInstantiateIndex: 65535
      m_AllTileFlags: 1073741825
  - first: {x: 1, y: 3, z: 0}
    second:
      serializedVersion: 2
      m_TileIndex: 11
      m_TileSpriteIndex: 11
      m_TileMatrixIndex: 0
      m_TileColorIndex: 0
      m_TileObjectToInstantiateIndex: 65535
      m_AllTileFlags: 1073741825
  - first: {x: 2, y: 3, z: 0}
    second:
      serializedVersion: 2
      m_TileIndex: 10
      m_TileSpriteIndex: 10
      m_TileMatrixIndex: 0
      m_TileColorIndex: 0
      m_TileObjectToInstantiateIndex: 65535
      m_AllTileFlags: 1073741825
  - first: {x: 3, y: 3, z: 0}
    second:
      serializedVersion: 2
      m_TileIndex: 9
      m_TileSpriteIndex: 9
      m_TileMatrixIndex: 0
      m_TileColorIndex: 0
      m_TileObjectToInstantiateIndex: 65535
      m_AllTileFlags: 1073741825
  - first: {x: 4, y: 3, z: 0}
    second:
      serializedVersion: 2
      m_TileIndex: 8
      m_TileSpriteIndex: 8
      m_TileMatrixIndex: 0
      m_TileColorIndex: 0
      m_TileObjectToInstantiateIndex: 65535
      m_AllTileFlags: 1073741825
  - first: {x: 5, y: 3, z: 0}
    second:
      serializedVersion: 2
      m_TileIndex: 7
      m_TileSpriteIndex: 7
      m_TileMatrixIndex: 0
      m_TileColorIndex: 0
      m_TileObjectToInstantiateIndex: 65535
      m_AllTileFlags: 1073741825
  - first: {x: 6, y: 3, z: 0}
    second:
      serializedVersion: 2
      m_TileIndex: 6
      m_TileSpriteIndex: 6
      m_TileMatrixIndex: 0
      m_TileColorIndex: 0
      m_TileObjectToInstantiateIndex: 65535
      m_AllTileFlags: 1073741825
  - first: {x: 7, y: 3, z: 0}
    second:
      serializedVersion: 2
      m_TileIndex: 5
      m_TileSpriteIndex: 5
      m_TileMatrixIndex: 0
      m_TileColorIndex: 0
      m_TileObjectToInstantiateIndex: 65535
      m_AllTileFlags: 1073741825
  - first: {x: 8, y: 3, z: 0}
    second:
      serializedVersion: 2
      m_TileIndex: 4
      m_TileSpriteIndex: 4
      m_TileMatrixIndex: 0
      m_TileColorIndex: 0
      m_TileObjectToInstantiateIndex: 65535
      m_AllTileFlags: 1073741825
  - first: {x: 9, y: 3, z: 0}
    second:
      serializedVersion: 2
      m_TileIndex: 3
      m_TileSpriteIndex: 3
      m_TileMatrixIndex: 0
      m_TileColorIndex: 0
      m_TileObjectToInstantiateIndex: 65535
      m_AllTileFlags: 1073741825
  m_AnimatedTiles: {}
  m_TileAssetArray:
  - m_RefCount: 1
    m_Data: {fileID: 11400000, guid: 5f031f7d355485945922d423ae48a759, type: 2}
  - m_RefCount: 1
    m_Data: {fileID: 11400000, guid: 007c0b29a5fd79c41a24612097669f54, type: 2}
  - m_RefCount: 1
    m_Data: {fileID: 11400000, guid: 0b816e8ddfd06ab40909c4b379532716, type: 2}
  - m_RefCount: 1
    m_Data: {fileID: 11400000, guid: 54ce5e38eacbc2943841f00c4036207a, type: 2}
  - m_RefCount: 1
    m_Data: {fileID: 11400000, guid: 41afc44475dedd44d96ad647fe0b7c32, type: 2}
  - m_RefCount: 1
    m_Data: {fileID: 11400000, guid: e72532a67c2ec494d81aa242d9ba56be, type: 2}
  - m_RefCount: 1
    m_Data: {fileID: 11400000, guid: f0f84b9fcf86f934ea5483dfbf83f2eb, type: 2}
  - m_RefCount: 1
    m_Data: {fileID: 11400000, guid: 40ea3268028baa84ca27f8e1768bf990, type: 2}
  - m_RefCount: 1
    m_Data: {fileID: 11400000, guid: a9fb66efbcc0ef64a9ffcc64a869fa18, type: 2}
  - m_RefCount: 1
    m_Data: {fileID: 11400000, guid: 31a07117a5a3af441950b1c6101d3d72, type: 2}
  - m_RefCount: 1
    m_Data: {fileID: 11400000, guid: a77eb0a9ccbae6e4488c954813ea762f, type: 2}
  - m_RefCount: 1
    m_Data: {fileID: 11400000, guid: 9cbe32740743ee74e9f0c292bb8bd1cb, type: 2}
  - m_RefCount: 1
    m_Data: {fileID: 11400000, guid: 836fb49c85341a6448b68c7d33f6b090, type: 2}
  - m_RefCount: 1
    m_Data: {fileID: 11400000, guid: ddc8c1facb3d8c54faae291d4da0c791, type: 2}
  - m_RefCount: 1
    m_Data: {fileID: 11400000, guid: 3327ce52dc50f5a44ae815da0102cd87, type: 2}
  - m_RefCount: 1
    m_Data: {fileID: 11400000, guid: cb6ac5be053fd4845a94e9a8a88852a4, type: 2}
  - m_RefCount: 1
    m_Data: {fileID: 11400000, guid: 71ec16b295eed8844a188fdd8c065127, type: 2}
  - m_RefCount: 1
    m_Data: {fileID: 11400000, guid: 4fece4d239b477347babb4aa79ad7c8e, type: 2}
  - m_RefCount: 1
    m_Data: {fileID: 11400000, guid: e65cc225b0974ed4d9b97a097e94bd00, type: 2}
  - m_RefCount: 1
    m_Data: {fileID: 11400000, guid: 8297804ca1cf8e44b9d1fef2694326cf, type: 2}
  - m_RefCount: 1
    m_Data: {fileID: 11400000, guid: 9387bd9648c40da41a21b0bb899f0145, type: 2}
  - m_RefCount: 1
    m_Data: {fileID: 11400000, guid: e820ec9f2e8be6e419b563b6ee58eb3c, type: 2}
  - m_RefCount: 1
    m_Data: {fileID: 11400000, guid: 9019efc08f7d5a24f8c4540c41c58795, type: 2}
  - m_RefCount: 1
    m_Data: {fileID: 11400000, guid: 270aaa10c8075b7459bb2e03e95cc0b4, type: 2}
  - m_RefCount: 1
    m_Data: {fileID: 11400000, guid: 1109b8e71f3b3fe4b860e16b826d8ceb, type: 2}
  - m_RefCount: 1
    m_Data: {fileID: 11400000, guid: aba25f53d19ff7942acaa4969739eed3, type: 2}
  - m_RefCount: 1
    m_Data: {fileID: 11400000, guid: 4bd5946ecba010b4488375e58c19a352, type: 2}
  - m_RefCount: 1
    m_Data: {fileID: 11400000, guid: 45f0d472c0b60cb4180da6ee794056b3, type: 2}
  - m_RefCount: 1
    m_Data: {fileID: 11400000, guid: ccdc1644209f76943a4227e7a96a8160, type: 2}
  - m_RefCount: 1
    m_Data: {fileID: 11400000, guid: 3fbe6379055dc4d41a455d72fa5a6342, type: 2}
  - m_RefCount: 1
    m_Data: {fileID: 11400000, guid: d8e798ba4354d104591dca9edd932bc1, type: 2}
  - m_RefCount: 1
    m_Data: {fileID: 11400000, guid: 46931a2d5e4f6894cbdf9a44e4b4d58e, type: 2}
  - m_RefCount: 1
    m_Data: {fileID: 11400000, guid: 49cd34f7d5dc3e14c88d0ac00843ceef, type: 2}
  - m_RefCount: 1
    m_Data: {fileID: 11400000, guid: 0208c29a7c946af4d9f3d99406ac44f6, type: 2}
  - m_RefCount: 1
    m_Data: {fileID: 11400000, guid: f4e76535c26da7c4c88cc697dc1ab1cd, type: 2}
  - m_RefCount: 1
    m_Data: {fileID: 11400000, guid: 00b7a39ea0f9ac8498091b14d5a3be18, type: 2}
  - m_RefCount: 1
    m_Data: {fileID: 11400000, guid: 923ca80d7d8a25b44ad6b6bd38dfd260, type: 2}
  - m_RefCount: 1
    m_Data: {fileID: 11400000, guid: 7196d3c3fb23bb647a875e6bb2ecc836, type: 2}
  - m_RefCount: 1
    m_Data: {fileID: 11400000, guid: e673422c86b8a7e40bc31cb0dbc1d811, type: 2}
  - m_RefCount: 1
    m_Data: {fileID: 11400000, guid: 009fbd082b6f0844e928c8ab490365a7, type: 2}
  - m_RefCount: 1
    m_Data: {fileID: 11400000, guid: b0195123566b458459fd0c8579791934, type: 2}
  - m_RefCount: 1
    m_Data: {fileID: 11400000, guid: e40dac2c98f387d459998e9cf1de8851, type: 2}
  - m_RefCount: 1
    m_Data: {fileID: 11400000, guid: eaab863a5e54c464eb5771884ff6a5ff, type: 2}
  - m_RefCount: 1
    m_Data: {fileID: 11400000, guid: 5f7c23438c2ca3044a877002775eb93a, type: 2}
  - m_RefCount: 1
    m_Data: {fileID: 11400000, guid: 28941764a88bebb47a87d57b84c33fd7, type: 2}
  - m_RefCount: 1
    m_Data: {fileID: 11400000, guid: 493f643110c58e745b137c9b64e6d4df, type: 2}
  - m_RefCount: 1
    m_Data: {fileID: 11400000, guid: 83d9ffd87d355ea489c5bade41de26bd, type: 2}
  - m_RefCount: 1
    m_Data: {fileID: 11400000, guid: 1c0db8bf70439fe4f8414fdb0d3f84b0, type: 2}
  - m_RefCount: 1
    m_Data: {fileID: 11400000, guid: f587cad7bc252ae4c8844052531a2eab, type: 2}
  - m_RefCount: 1
    m_Data: {fileID: 11400000, guid: 64f9385ea44386f4fa8e7b29fc3aaa36, type: 2}
  - m_RefCount: 1
    m_Data: {fileID: 11400000, guid: b08aaf7eb137f5f40b7357fa8e384143, type: 2}
  - m_RefCount: 1
    m_Data: {fileID: 11400000, guid: 44cefa59d0889ca4a9f4225ff80f3dd8, type: 2}
  - m_RefCount: 1
    m_Data: {fileID: 11400000, guid: e75674dbac73b3945a96e3f342c292c7, type: 2}
  - m_RefCount: 1
    m_Data: {fileID: 11400000, guid: 0b5a69bbff4215f4b9683de7551d6f93, type: 2}
  - m_RefCount: 1
    m_Data: {fileID: 11400000, guid: c5d173e236386c6479b9694d19a9c356, type: 2}
  - m_RefCount: 1
    m_Data: {fileID: 11400000, guid: 5a2690022a52a2c4ca729153e7c333d1, type: 2}
  - m_RefCount: 1
    m_Data: {fileID: 11400000, guid: f12e15419387f894cb669559692204fc, type: 2}
  - m_RefCount: 1
    m_Data: {fileID: 11400000, guid: 9677c77804a38fd4b809bf5e84dd28ac, type: 2}
  - m_RefCount: 1
    m_Data: {fileID: 11400000, guid: 55850ee378f506b41afba7c5edf69103, type: 2}
  - m_RefCount: 1
    m_Data: {fileID: 11400000, guid: e15ef08ea9e8cdf428527da8c200e1fb, type: 2}
  - m_RefCount: 1
    m_Data: {fileID: 11400000, guid: bb69130d245b8814e9d8bdf86717ed17, type: 2}
  - m_RefCount: 1
    m_Data: {fileID: 11400000, guid: f2eef62bae50d0d4c88bba259a2d1f85, type: 2}
  - m_RefCount: 1
    m_Data: {fileID: 11400000, guid: 7e8817f21ba34b84c9cf589d124b2fd1, type: 2}
  - m_RefCount: 1
    m_Data: {fileID: 11400000, guid: 50e75e39ea4e92d4eadd7c46c99a0199, type: 2}
  - m_RefCount: 1
    m_Data: {fileID: 11400000, guid: bf2329d675f63e740b6034c5f58cef44, type: 2}
  - m_RefCount: 1
    m_Data: {fileID: 11400000, guid: 36ac650cab33098408c9630b9ff2115a, type: 2}
  - m_RefCount: 1
    m_Data: {fileID: 11400000, guid: 8c96116922b9c2749a5324844a4cc859, type: 2}
  - m_RefCount: 1
    m_Data: {fileID: 11400000, guid: d742b1024411e9649ad805ab816b88c4, type: 2}
  - m_RefCount: 1
    m_Data: {fileID: 11400000, guid: 6914178c0782d3c46ad8e52f10c06347, type: 2}
  - m_RefCount: 1
    m_Data: {fileID: 11400000, guid: 71c54fa2feaf86e4bb457604dd957255, type: 2}
  - m_RefCount: 1
    m_Data: {fileID: 11400000, guid: 59049c4e8ad2b68488b676bc0aa303bf, type: 2}
  - m_RefCount: 1
    m_Data: {fileID: 11400000, guid: ed2ebba1b5b38ac43bde59bb3e563006, type: 2}
  - m_RefCount: 1
    m_Data: {fileID: 11400000, guid: 0d6244b524c35304c8079a5689748be3, type: 2}
  - m_RefCount: 1
    m_Data: {fileID: 11400000, guid: d03920722e2d34840b4108eb4d13a0ab, type: 2}
  - m_RefCount: 1
    m_Data: {fileID: 11400000, guid: 56fcb7d0f6800554a91286b8fa05c0af, type: 2}
  - m_RefCount: 1
    m_Data: {fileID: 11400000, guid: ea733d294636b5844b4fe65f6b60f76b, type: 2}
  - m_RefCount: 1
    m_Data: {fileID: 11400000, guid: 6debc7b77a3b3084a83106e0563df9e1, type: 2}
  - m_RefCount: 1
    m_Data: {fileID: 11400000, guid: b576803bb95dd954eb17b90f53fcbf2c, type: 2}
  - m_RefCount: 1
    m_Data: {fileID: 11400000, guid: 81236f7cdbaf1e4418096bd1f2933479, type: 2}
  - m_RefCount: 1
    m_Data: {fileID: 11400000, guid: 1f1c212e211c7f747a6f61fbee58b892, type: 2}
  - m_RefCount: 1
    m_Data: {fileID: 11400000, guid: 6601d8ad2b49afb4986fd3b4b60f6b01, type: 2}
  - m_RefCount: 1
    m_Data: {fileID: 11400000, guid: 48e19fbf43bfcbe45950f76fec607fdc, type: 2}
  - m_RefCount: 1
    m_Data: {fileID: 11400000, guid: 08ed11978a7721d48974ec57d63ad784, type: 2}
  - m_RefCount: 1
    m_Data: {fileID: 11400000, guid: 21ec102426ad4dd4097f7a9c31ff3193, type: 2}
  - m_RefCount: 1
    m_Data: {fileID: 11400000, guid: 46652f952d7a6704f937858e4444eec9, type: 2}
  - m_RefCount: 1
    m_Data: {fileID: 11400000, guid: a99a989c892f1be408ce7e4b995b3882, type: 2}
  - m_RefCount: 1
    m_Data: {fileID: 11400000, guid: 69938112675772d49909273993c8a2ca, type: 2}
  - m_RefCount: 1
    m_Data: {fileID: 11400000, guid: a01ae452b978cde4bb2ce20e18218269, type: 2}
  - m_RefCount: 1
    m_Data: {fileID: 11400000, guid: d1d9d6619d380de43840f8f436fc2124, type: 2}
  - m_RefCount: 1
    m_Data: {fileID: 11400000, guid: 3ffef50e2f9968e4aa27825131c7e6a1, type: 2}
  - m_RefCount: 1
    m_Data: {fileID: 11400000, guid: d8925e3e5013c0743a2c5cef3bd7a83e, type: 2}
  - m_RefCount: 1
    m_Data: {fileID: 11400000, guid: a26f826cd44d9fa49b43f21b9bce7035, type: 2}
  - m_RefCount: 1
    m_Data: {fileID: 11400000, guid: 469a7ab09c522b64a881098866a6da99, type: 2}
  - m_RefCount: 1
    m_Data: {fileID: 11400000, guid: 7cafe2e70adf59a4a8d2d1080d20d0e8, type: 2}
  - m_RefCount: 1
    m_Data: {fileID: 11400000, guid: c2668011c1fc3f94d83c6250628f46a8, type: 2}
  - m_RefCount: 1
    m_Data: {fileID: 11400000, guid: 7f8d490d75f33974985aeaac6d53a4d0, type: 2}
  - m_RefCount: 1
    m_Data: {fileID: 11400000, guid: 26d2c3fd176185c4a8d258eefc9d8972, type: 2}
  - m_RefCount: 1
    m_Data: {fileID: 11400000, guid: 94f14add431090746827b9a6477841e4, type: 2}
  - m_RefCount: 1
    m_Data: {fileID: 11400000, guid: 02cec1bd62d1fc34eb54bc4f382b53e0, type: 2}
  - m_RefCount: 1
    m_Data: {fileID: 11400000, guid: edafa8d475c8d054ba1ad2e93998fbd3, type: 2}
  - m_RefCount: 1
    m_Data: {fileID: 11400000, guid: 5e87eaa93dfc8784bb1081d56fc80ae4, type: 2}
  - m_RefCount: 1
    m_Data: {fileID: 11400000, guid: 670fe0ece74eadf43af7b6b516c66a13, type: 2}
  - m_RefCount: 1
    m_Data: {fileID: 11400000, guid: e2d0dc124c9aca847b60ae663ae7afc6, type: 2}
  - m_RefCount: 1
    m_Data: {fileID: 11400000, guid: c5c1795eea076454cac3be6c5e8159c4, type: 2}
  - m_RefCount: 1
    m_Data: {fileID: 11400000, guid: b37ee8b19cbe5ee4b86bad9d77b107a3, type: 2}
  - m_RefCount: 1
    m_Data: {fileID: 11400000, guid: 81547b3c4371ef445be8eb51a540a902, type: 2}
  - m_RefCount: 1
    m_Data: {fileID: 11400000, guid: 3da0655addee554458eecc1c4de23cea, type: 2}
  - m_RefCount: 1
    m_Data: {fileID: 11400000, guid: b6d631e3aa4cdae498f41392ccc026ff, type: 2}
  - m_RefCount: 1
    m_Data: {fileID: 11400000, guid: 0dd7a684eedfdd5409f813c4dc927de0, type: 2}
  - m_RefCount: 1
    m_Data: {fileID: 11400000, guid: ede431c172f97694eba960e02529bb3c, type: 2}
  - m_RefCount: 1
    m_Data: {fileID: 11400000, guid: ad377eefcf5c7a64bb81f44a57280601, type: 2}
  - m_RefCount: 1
    m_Data: {fileID: 11400000, guid: 7779f12882f9b5d4189ade2e3cac7f83, type: 2}
  - m_RefCount: 1
    m_Data: {fileID: 11400000, guid: dd75bb50aca2d264b857199e835b66dc, type: 2}
  - m_RefCount: 1
    m_Data: {fileID: 11400000, guid: 72b6f263979545547bce1ee37f2e123e, type: 2}
  - m_RefCount: 1
    m_Data: {fileID: 11400000, guid: 1c5df91414fff9a43a5016e0b0cd8d74, type: 2}
  - m_RefCount: 1
    m_Data: {fileID: 11400000, guid: 58aafc6392a72dc41aaa72e0dde83121, type: 2}
  - m_RefCount: 1
    m_Data: {fileID: 11400000, guid: df1605d58d586b844a1fe83a07e511c2, type: 2}
  - m_RefCount: 1
    m_Data: {fileID: 11400000, guid: cd0a9d6771d65a14db606a9542ae01a2, type: 2}
  - m_RefCount: 0
    m_Data: {fileID: 0}
  m_TileSpriteArray:
  - m_RefCount: 1
    m_Data: {fileID: 6985626698306143173, guid: e83c549622e533e41be4c659aee6789f,
      type: 3}
  - m_RefCount: 1
    m_Data: {fileID: -7676219313036738927, guid: e83c549622e533e41be4c659aee6789f,
      type: 3}
  - m_RefCount: 1
    m_Data: {fileID: -2630129836624287915, guid: e83c549622e533e41be4c659aee6789f,
      type: 3}
  - m_RefCount: 1
    m_Data: {fileID: 1269540525142108225, guid: e83c549622e533e41be4c659aee6789f,
      type: 3}
  - m_RefCount: 1
    m_Data: {fileID: 5777552420452043588, guid: e83c549622e533e41be4c659aee6789f,
      type: 3}
  - m_RefCount: 1
    m_Data: {fileID: -5906973516983679737, guid: e83c549622e533e41be4c659aee6789f,
      type: 3}
  - m_RefCount: 1
    m_Data: {fileID: -8276262488406422588, guid: e83c549622e533e41be4c659aee6789f,
      type: 3}
  - m_RefCount: 1
    m_Data: {fileID: -1370661682523340017, guid: e83c549622e533e41be4c659aee6789f,
      type: 3}
  - m_RefCount: 1
    m_Data: {fileID: -7921052967969465774, guid: e83c549622e533e41be4c659aee6789f,
      type: 3}
  - m_RefCount: 1
    m_Data: {fileID: 226702753830753226, guid: e83c549622e533e41be4c659aee6789f, type: 3}
  - m_RefCount: 1
    m_Data: {fileID: 2788568348960109317, guid: e83c549622e533e41be4c659aee6789f,
      type: 3}
  - m_RefCount: 1
    m_Data: {fileID: -5962389079421231736, guid: e83c549622e533e41be4c659aee6789f,
      type: 3}
  - m_RefCount: 1
    m_Data: {fileID: -1259408508766424310, guid: e83c549622e533e41be4c659aee6789f,
      type: 3}
  - m_RefCount: 1
    m_Data: {fileID: -6251682230944352461, guid: e83c549622e533e41be4c659aee6789f,
      type: 3}
  - m_RefCount: 1
    m_Data: {fileID: 8020143640844766479, guid: e83c549622e533e41be4c659aee6789f,
      type: 3}
  - m_RefCount: 1
    m_Data: {fileID: 4773514653529381359, guid: e83c549622e533e41be4c659aee6789f,
      type: 3}
  - m_RefCount: 1
    m_Data: {fileID: -6420534950463556919, guid: e83c549622e533e41be4c659aee6789f,
      type: 3}
  - m_RefCount: 1
    m_Data: {fileID: 8367830406354533065, guid: e83c549622e533e41be4c659aee6789f,
      type: 3}
  - m_RefCount: 1
    m_Data: {fileID: -4721245407534591264, guid: e83c549622e533e41be4c659aee6789f,
      type: 3}
  - m_RefCount: 1
    m_Data: {fileID: -2642393358525368334, guid: e83c549622e533e41be4c659aee6789f,
      type: 3}
  - m_RefCount: 1
    m_Data: {fileID: 182515998739034355, guid: e83c549622e533e41be4c659aee6789f, type: 3}
  - m_RefCount: 1
    m_Data: {fileID: 5390129371266227295, guid: e83c549622e533e41be4c659aee6789f,
      type: 3}
  - m_RefCount: 1
    m_Data: {fileID: 1111231892956182058, guid: e83c549622e533e41be4c659aee6789f,
      type: 3}
  - m_RefCount: 1
    m_Data: {fileID: 3042023047814558122, guid: e83c549622e533e41be4c659aee6789f,
      type: 3}
  - m_RefCount: 1
    m_Data: {fileID: -1297572194080285004, guid: e83c549622e533e41be4c659aee6789f,
      type: 3}
  - m_RefCount: 1
    m_Data: {fileID: -5351138903708955224, guid: e83c549622e533e41be4c659aee6789f,
      type: 3}
  - m_RefCount: 1
    m_Data: {fileID: -5895191231709818157, guid: e83c549622e533e41be4c659aee6789f,
      type: 3}
  - m_RefCount: 1
    m_Data: {fileID: 4116411608050698257, guid: e83c549622e533e41be4c659aee6789f,
      type: 3}
  - m_RefCount: 1
    m_Data: {fileID: 2696214034221626940, guid: e83c549622e533e41be4c659aee6789f,
      type: 3}
  - m_RefCount: 1
    m_Data: {fileID: 5339229742347854233, guid: e83c549622e533e41be4c659aee6789f,
      type: 3}
  - m_RefCount: 1
    m_Data: {fileID: -5381851817413261878, guid: e83c549622e533e41be4c659aee6789f,
      type: 3}
  - m_RefCount: 1
    m_Data: {fileID: 6123212246031883711, guid: e83c549622e533e41be4c659aee6789f,
      type: 3}
  - m_RefCount: 1
    m_Data: {fileID: -8158273205997960823, guid: e83c549622e533e41be4c659aee6789f,
      type: 3}
  - m_RefCount: 1
    m_Data: {fileID: -7803645574393991823, guid: e83c549622e533e41be4c659aee6789f,
      type: 3}
  - m_RefCount: 1
    m_Data: {fileID: -8540854674809487797, guid: e83c549622e533e41be4c659aee6789f,
      type: 3}
  - m_RefCount: 1
    m_Data: {fileID: -2800876817223335725, guid: e83c549622e533e41be4c659aee6789f,
      type: 3}
  - m_RefCount: 1
    m_Data: {fileID: 7686511047796825374, guid: e83c549622e533e41be4c659aee6789f,
      type: 3}
  - m_RefCount: 1
    m_Data: {fileID: -3654083477062011090, guid: e83c549622e533e41be4c659aee6789f,
      type: 3}
  - m_RefCount: 1
    m_Data: {fileID: -2213891765562235112, guid: e83c549622e533e41be4c659aee6789f,
      type: 3}
  - m_RefCount: 1
    m_Data: {fileID: 7816579671404485219, guid: e83c549622e533e41be4c659aee6789f,
      type: 3}
  - m_RefCount: 1
    m_Data: {fileID: 8434893452232278025, guid: e83c549622e533e41be4c659aee6789f,
      type: 3}
  - m_RefCount: 1
    m_Data: {fileID: 3062383759408700104, guid: e83c549622e533e41be4c659aee6789f,
      type: 3}
  - m_RefCount: 1
    m_Data: {fileID: -3687489427716195, guid: e83c549622e533e41be4c659aee6789f, type: 3}
  - m_RefCount: 1
    m_Data: {fileID: 1751618896811465624, guid: e83c549622e533e41be4c659aee6789f,
      type: 3}
  - m_RefCount: 1
    m_Data: {fileID: 156824180473805077, guid: e83c549622e533e41be4c659aee6789f, type: 3}
  - m_RefCount: 1
    m_Data: {fileID: 9109323392184880499, guid: e83c549622e533e41be4c659aee6789f,
      type: 3}
  - m_RefCount: 1
    m_Data: {fileID: 2598833627876718223, guid: e83c549622e533e41be4c659aee6789f,
      type: 3}
  - m_RefCount: 1
    m_Data: {fileID: -2033776217500058201, guid: e83c549622e533e41be4c659aee6789f,
      type: 3}
  - m_RefCount: 1
    m_Data: {fileID: -9123048126347468465, guid: e83c549622e533e41be4c659aee6789f,
      type: 3}
  - m_RefCount: 1
    m_Data: {fileID: -2731854774048942697, guid: e83c549622e533e41be4c659aee6789f,
      type: 3}
  - m_RefCount: 1
    m_Data: {fileID: 6463828295129595045, guid: e83c549622e533e41be4c659aee6789f,
      type: 3}
  - m_RefCount: 1
    m_Data: {fileID: 2920052613717862253, guid: e83c549622e533e41be4c659aee6789f,
      type: 3}
  - m_RefCount: 1
    m_Data: {fileID: -8873626391699258573, guid: e83c549622e533e41be4c659aee6789f,
      type: 3}
  - m_RefCount: 1
    m_Data: {fileID: 1752520659032480968, guid: e83c549622e533e41be4c659aee6789f,
      type: 3}
  - m_RefCount: 1
    m_Data: {fileID: -8188909564941553941, guid: e83c549622e533e41be4c659aee6789f,
      type: 3}
  - m_RefCount: 1
    m_Data: {fileID: 8203099556873942403, guid: e83c549622e533e41be4c659aee6789f,
      type: 3}
  - m_RefCount: 1
    m_Data: {fileID: -4180715191943267252, guid: e83c549622e533e41be4c659aee6789f,
      type: 3}
  - m_RefCount: 1
    m_Data: {fileID: -3423954715984931012, guid: e83c549622e533e41be4c659aee6789f,
      type: 3}
  - m_RefCount: 1
    m_Data: {fileID: -1173080275824419151, guid: e83c549622e533e41be4c659aee6789f,
      type: 3}
  - m_RefCount: 1
    m_Data: {fileID: -3194430170665604626, guid: e83c549622e533e41be4c659aee6789f,
      type: 3}
  - m_RefCount: 1
    m_Data: {fileID: -4180478380050184196, guid: e83c549622e533e41be4c659aee6789f,
      type: 3}
  - m_RefCount: 1
    m_Data: {fileID: 1528203702100030697, guid: e83c549622e533e41be4c659aee6789f,
      type: 3}
  - m_RefCount: 1
    m_Data: {fileID: 4057492184055871464, guid: e83c549622e533e41be4c659aee6789f,
      type: 3}
  - m_RefCount: 1
    m_Data: {fileID: -8151809739343590656, guid: e83c549622e533e41be4c659aee6789f,
      type: 3}
  - m_RefCount: 1
    m_Data: {fileID: 1486011304807624349, guid: e83c549622e533e41be4c659aee6789f,
      type: 3}
  - m_RefCount: 1
    m_Data: {fileID: -7546874146221198523, guid: e83c549622e533e41be4c659aee6789f,
      type: 3}
  - m_RefCount: 1
    m_Data: {fileID: 8203384205706593396, guid: e83c549622e533e41be4c659aee6789f,
      type: 3}
  - m_RefCount: 1
    m_Data: {fileID: 5476210624315791439, guid: e83c549622e533e41be4c659aee6789f,
      type: 3}
  - m_RefCount: 1
    m_Data: {fileID: 4881338712816961750, guid: e83c549622e533e41be4c659aee6789f,
      type: 3}
  - m_RefCount: 1
    m_Data: {fileID: -3637585315767756026, guid: e83c549622e533e41be4c659aee6789f,
      type: 3}
  - m_RefCount: 1
    m_Data: {fileID: 3339521214611036040, guid: e83c549622e533e41be4c659aee6789f,
      type: 3}
  - m_RefCount: 1
    m_Data: {fileID: -8054094661458634563, guid: e83c549622e533e41be4c659aee6789f,
      type: 3}
  - m_RefCount: 1
    m_Data: {fileID: -4398394707965095008, guid: e83c549622e533e41be4c659aee6789f,
      type: 3}
  - m_RefCount: 1
    m_Data: {fileID: 4764081960791798808, guid: e83c549622e533e41be4c659aee6789f,
      type: 3}
  - m_RefCount: 1
    m_Data: {fileID: 4358228687824631495, guid: e83c549622e533e41be4c659aee6789f,
      type: 3}
  - m_RefCount: 1
    m_Data: {fileID: -1933497887715123699, guid: e83c549622e533e41be4c659aee6789f,
      type: 3}
  - m_RefCount: 1
    m_Data: {fileID: -7088014404590163093, guid: e83c549622e533e41be4c659aee6789f,
      type: 3}
  - m_RefCount: 1
    m_Data: {fileID: -4231952906909274518, guid: e83c549622e533e41be4c659aee6789f,
      type: 3}
  - m_RefCount: 1
    m_Data: {fileID: -3253330834931219228, guid: e83c549622e533e41be4c659aee6789f,
      type: 3}
  - m_RefCount: 1
    m_Data: {fileID: -7217613064680546865, guid: e83c549622e533e41be4c659aee6789f,
      type: 3}
  - m_RefCount: 1
    m_Data: {fileID: 7785628452164488187, guid: e83c549622e533e41be4c659aee6789f,
      type: 3}
  - m_RefCount: 1
    m_Data: {fileID: 8746164212724197313, guid: e83c549622e533e41be4c659aee6789f,
      type: 3}
  - m_RefCount: 1
    m_Data: {fileID: 2455660249822621566, guid: e83c549622e533e41be4c659aee6789f,
      type: 3}
  - m_RefCount: 1
    m_Data: {fileID: 1425127498379637175, guid: e83c549622e533e41be4c659aee6789f,
      type: 3}
  - m_RefCount: 1
    m_Data: {fileID: -100600239254619610, guid: e83c549622e533e41be4c659aee6789f,
      type: 3}
  - m_RefCount: 1
    m_Data: {fileID: -2246593140615009828, guid: e83c549622e533e41be4c659aee6789f,
      type: 3}
  - m_RefCount: 1
    m_Data: {fileID: 4690727812591204254, guid: e83c549622e533e41be4c659aee6789f,
      type: 3}
  - m_RefCount: 1
    m_Data: {fileID: -1837837421625175352, guid: e83c549622e533e41be4c659aee6789f,
      type: 3}
  - m_RefCount: 1
    m_Data: {fileID: -7033796726722632800, guid: e83c549622e533e41be4c659aee6789f,
      type: 3}
  - m_RefCount: 1
    m_Data: {fileID: -5575019744733750458, guid: e83c549622e533e41be4c659aee6789f,
      type: 3}
  - m_RefCount: 1
    m_Data: {fileID: -289723467203535953, guid: e83c549622e533e41be4c659aee6789f,
      type: 3}
  - m_RefCount: 1
    m_Data: {fileID: 655305000280709651, guid: e83c549622e533e41be4c659aee6789f, type: 3}
  - m_RefCount: 1
    m_Data: {fileID: -2254380589530487662, guid: e83c549622e533e41be4c659aee6789f,
      type: 3}
  - m_RefCount: 1
    m_Data: {fileID: -7901777169779311463, guid: e83c549622e533e41be4c659aee6789f,
      type: 3}
  - m_RefCount: 1
    m_Data: {fileID: 5203210261242217090, guid: e83c549622e533e41be4c659aee6789f,
      type: 3}
  - m_RefCount: 1
    m_Data: {fileID: -1557503619298483170, guid: e83c549622e533e41be4c659aee6789f,
      type: 3}
  - m_RefCount: 1
    m_Data: {fileID: 422470951999582962, guid: e83c549622e533e41be4c659aee6789f, type: 3}
  - m_RefCount: 1
    m_Data: {fileID: 4300032086827013196, guid: e83c549622e533e41be4c659aee6789f,
      type: 3}
  - m_RefCount: 1
    m_Data: {fileID: -4570924730061458200, guid: e83c549622e533e41be4c659aee6789f,
      type: 3}
  - m_RefCount: 1
    m_Data: {fileID: -222044690269729384, guid: e83c549622e533e41be4c659aee6789f,
      type: 3}
  - m_RefCount: 1
    m_Data: {fileID: 7904464350286974632, guid: e83c549622e533e41be4c659aee6789f,
      type: 3}
  - m_RefCount: 1
    m_Data: {fileID: -2169895058544258997, guid: e83c549622e533e41be4c659aee6789f,
      type: 3}
  - m_RefCount: 1
    m_Data: {fileID: -7162000436051808513, guid: e83c549622e533e41be4c659aee6789f,
      type: 3}
  - m_RefCount: 1
    m_Data: {fileID: -2634763343079757682, guid: e83c549622e533e41be4c659aee6789f,
      type: 3}
  - m_RefCount: 1
    m_Data: {fileID: -7671474916949920668, guid: e83c549622e533e41be4c659aee6789f,
      type: 3}
  - m_RefCount: 1
    m_Data: {fileID: 811743801655400868, guid: e83c549622e533e41be4c659aee6789f, type: 3}
  - m_RefCount: 1
    m_Data: {fileID: -5993310274270542889, guid: e83c549622e533e41be4c659aee6789f,
      type: 3}
  - m_RefCount: 1
    m_Data: {fileID: -2181573778811718679, guid: e83c549622e533e41be4c659aee6789f,
      type: 3}
  - m_RefCount: 1
    m_Data: {fileID: 1015513880522613579, guid: e83c549622e533e41be4c659aee6789f,
      type: 3}
  - m_RefCount: 1
    m_Data: {fileID: -8235316027905752862, guid: e83c549622e533e41be4c659aee6789f,
      type: 3}
  - m_RefCount: 1
    m_Data: {fileID: -5005236045991921821, guid: e83c549622e533e41be4c659aee6789f,
      type: 3}
  - m_RefCount: 1
    m_Data: {fileID: -1370276480415180060, guid: e83c549622e533e41be4c659aee6789f,
      type: 3}
  - m_RefCount: 1
    m_Data: {fileID: 4273378062786577517, guid: e83c549622e533e41be4c659aee6789f,
      type: 3}
  - m_RefCount: 1
    m_Data: {fileID: 3798991597802768354, guid: e83c549622e533e41be4c659aee6789f,
      type: 3}
  - m_RefCount: 1
    m_Data: {fileID: -8120609992666035654, guid: e83c549622e533e41be4c659aee6789f,
      type: 3}
  - m_RefCount: 1
    m_Data: {fileID: -9155583363820198978, guid: e83c549622e533e41be4c659aee6789f,
      type: 3}
  - m_RefCount: 1
    m_Data: {fileID: 5784841554121364614, guid: e83c549622e533e41be4c659aee6789f,
      type: 3}
  - m_RefCount: 1
    m_Data: {fileID: -4761537625654433060, guid: e83c549622e533e41be4c659aee6789f,
      type: 3}
  - m_RefCount: 0
    m_Data: {fileID: 0}
  m_TileMatrixArray:
  - m_RefCount: 118
    m_Data:
      e00: 1
      e01: 0
      e02: 0
      e03: 0
      e10: 0
      e11: 1
      e12: 0
      e13: 0
      e20: 0
      e21: 0
      e22: 1
      e23: 0
      e30: 0
      e31: 0
      e32: 0
      e33: 1
  m_TileColorArray:
  - m_RefCount: 118
    m_Data: {r: 1, g: 1, b: 1, a: 1}
  m_TileObjectToInstantiateArray: []
  m_AnimationFrameRate: 1
  m_Color: {r: 1, g: 1, b: 1, a: 1}
  m_Origin: {x: -2, y: -9, z: 0}
  m_Size: {x: 12, y: 13, z: 1}
  m_TileAnchor: {x: 0.5, y: 0.5, z: 0}
  m_TileOrientation: 0
  m_TileOrientationMatrix:
    e00: 1
    e01: 0
    e02: 0
    e03: 0
    e10: 0
    e11: 1
    e12: 0
    e13: 0
    e20: 0
    e21: 0
    e22: 1
    e23: 0
    e30: 0
    e31: 0
    e32: 0
    e33: 1
--- !u!483693784 &8952301849888502988
TilemapRenderer:
  m_ObjectHideFlags: 0
  m_CorrespondingSourceObject: {fileID: 0}
  m_PrefabInstance: {fileID: 0}
  m_PrefabAsset: {fileID: 0}
  m_GameObject: {fileID: 8340489810583828006}
  m_Enabled: 0
  m_CastShadows: 0
  m_ReceiveShadows: 0
  m_DynamicOccludee: 0
  m_MotionVectors: 1
  m_LightProbeUsage: 0
  m_ReflectionProbeUsage: 0
  m_RayTracingMode: 0
  m_RenderingLayerMask: 1
  m_RendererPriority: 0
  m_Materials:
  - {fileID: 10754, guid: 0000000000000000f000000000000000, type: 0}
  m_StaticBatchInfo:
    firstSubMesh: 0
    subMeshCount: 0
  m_StaticBatchRoot: {fileID: 0}
  m_ProbeAnchor: {fileID: 0}
  m_LightProbeVolumeOverride: {fileID: 0}
  m_ScaleInLightmap: 1
  m_ReceiveGI: 1
  m_PreserveUVs: 0
  m_IgnoreNormalsForChartDetection: 0
  m_ImportantGI: 0
  m_StitchLightmapSeams: 1
  m_SelectedEditorRenderState: 0
  m_MinimumChartSize: 4
  m_AutoUVMaxDistance: 0.5
  m_AutoUVMaxAngle: 89
  m_LightmapParameters: {fileID: 0}
  m_SortingLayerID: 0
  m_SortingLayer: 0
  m_SortingOrder: 0
  m_ChunkSize: {x: 32, y: 32, z: 32}
  m_ChunkCullingBounds: {x: 0.5, y: 0.5, z: 0}
  m_MaxChunkCount: 16
  m_MaxFrameAge: 16
  m_SortOrder: 0
  m_Mode: 0
  m_DetectChunkCullingBounds: 0
  m_MaskInteraction: 0
--- !u!114 &1723615021001042911
MonoBehaviour:
  m_ObjectHideFlags: 0
  m_CorrespondingSourceObject: {fileID: 0}
  m_PrefabInstance: {fileID: 0}
  m_PrefabAsset: {fileID: 0}
  m_GameObject: {fileID: 0}
  m_Enabled: 1
  m_EditorHideFlags: 0
  m_Script: {fileID: 12395, guid: 0000000000000000e000000000000000, type: 0}
  m_Name: Palette Settings
  m_EditorClassIdentifier: 
  cellSizing: 0
